<?xml version="1.0" standalone="no"?>
<!DOCTYPE svg PUBLIC "-//W3C//DTD SVG 20010904//EN"
 "http://www.w3.org/TR/2001/REC-SVG-20010904/DTD/svg10.dtd">
<svg version="1.0" xmlns="http://www.w3.org/2000/svg"
 width="700.000000pt" height="700.000000pt" viewBox="0 0 700.000000 700.000000"
 preserveAspectRatio="xMidYMid meet">
<metadata>
Created by potrace 1.16, written by Peter Selinger 2001-2019
</metadata>
<g transform="translate(0.000000,700.000000) scale(0.100000,-0.100000)"
fill="#000000" stroke="none">
<path d="M987 6033 c-14 -32 -134 -330 -267 -663 -491 -1226 -474 -1177 -429
-1234 36 -46 77 -35 164 43 92 83 110 92 207 107 196 29 568 7 760 -45 405
-111 781 -235 860 -284 l33 -21 -32 -6 c-34 -5 -64 -26 -81 -56 -7 -12 -26
-19 -66 -22 -68 -5 -81 -20 -89 -99 -5 -46 -12 -58 -53 -98 -39 -37 -54 -45
-84 -45 -44 0 -90 -32 -90 -62 0 -11 9 -31 20 -45 11 -14 20 -30 20 -34 0 -5
-26 -6 -57 -3 -49 5 -62 3 -83 -14 -21 -17 -25 -28 -24 -75 l0 -56 -43 -10
c-54 -14 -67 -37 -61 -110 5 -56 5 -56 -38 -94 -27 -24 -47 -52 -54 -75 -14
-52 -11 -264 5 -347 14 -75 81 -309 94 -333 5 -9 -4 -40 -25 -84 -19 -37 -34
-72 -34 -76 0 -4 -9 -25 -21 -47 -33 -60 -23 -109 37 -185 27 -34 63 -83 81
-108 18 -26 48 -68 67 -94 20 -26 44 -67 53 -90 9 -24 27 -59 39 -78 167 -254
300 -449 336 -493 23 -30 61 -80 83 -112 22 -32 47 -65 55 -74 8 -9 59 -62
112 -117 90 -95 98 -106 121 -180 79 -248 131 -300 312 -311 l93 -6 -49 -140
c-27 -76 -49 -143 -49 -148 0 -5 522 -9 1219 -9 l1218 0 43 63 c24 34 119 159
210 277 150 193 203 265 250 335 8 12 39 58 68 101 121 179 198 387 228 619
l7 50 18 -40 c10 -22 19 -48 19 -57 0 -10 5 -18 10 -18 6 0 10 5 10 12 0 8 3
9 10 2 9 -9 30 -144 30 -191 0 -23 20 -14 21 10 0 17 6 11 22 -23 12 -25 32
-58 43 -72 12 -15 27 -41 34 -58 7 -16 19 -30 27 -30 18 0 41 54 51 122 l9 53
44 -91 c61 -126 129 -190 129 -122 0 21 2 20 30 -7 34 -33 35 -29 21 58 -8 47
-8 47 21 47 32 0 34 8 13 68 -8 23 -20 84 -25 136 -9 80 -9 100 5 132 10 25
19 94 25 204 12 222 38 332 82 343 15 4 19 11 15 26 -2 11 1 22 8 25 8 3 14
40 18 118 3 62 11 127 18 144 11 28 8 46 -29 175 -23 79 -53 198 -67 264 -15
66 -40 183 -56 260 -42 198 -66 290 -84 324 -8 17 -15 42 -15 56 0 33 -77 117
-145 157 -124 73 -138 84 -164 129 l-26 47 24 97 c20 84 22 110 16 203 -10
154 -19 193 -72 300 -147 300 -448 528 -815 617 -177 43 -280 28 -373 -54 -18
-16 -57 -37 -87 -46 -189 -62 -375 -203 -413 -313 -38 -109 -36 -108 -200
-177 -222 -95 -236 -122 -131 -245 l45 -53 -20 -37 c-22 -39 -22 -62 -3 -262
9 -94 0 -129 -50 -190 -73 -90 -78 -110 -50 -185 16 -41 16 -45 -6 -104 -26
-72 -21 -135 13 -175 41 -47 192 -71 307 -50 30 6 41 3 72 -24 20 -17 59 -70
87 -118 l50 -87 -15 -95 c-7 -52 -14 -100 -14 -107 0 -6 -13 -16 -29 -21 -16
-6 -48 -24 -71 -41 -31 -22 -54 -31 -84 -31 -83 -1 -115 -15 -168 -74 -27 -31
-57 -56 -67 -56 -9 0 -28 -8 -41 -17 -14 -10 -39 -25 -56 -33 -17 -9 -48 -31
-70 -48 -21 -17 -76 -61 -120 -96 -45 -36 -108 -89 -140 -119 -33 -29 -81 -69
-109 -87 -74 -50 -157 -124 -190 -170 -62 -86 -79 -102 -144 -131 -78 -36
-144 -47 -166 -29 -11 9 -15 32 -15 79 0 48 -7 82 -26 126 -14 33 -37 94 -51
135 -27 82 -46 121 -76 161 -19 26 -19 27 3 75 21 48 21 53 9 192 -7 78 -10
145 -6 148 3 3 43 10 89 15 45 5 87 14 92 19 6 6 18 10 27 10 9 0 22 7 29 15
7 8 21 15 31 15 11 0 19 4 19 9 0 5 14 14 30 20 17 5 30 17 30 25 0 9 6 16 12
16 30 0 139 136 184 230 25 52 54 111 65 132 13 26 20 68 25 150 7 132 10 144
78 305 43 105 54 123 73 123 26 0 37 19 83 145 18 50 42 104 55 120 12 17 29
44 38 61 22 44 97 263 97 285 0 27 -85 86 -150 105 -86 24 -100 32 -114 66
-12 27 -12 38 0 71 8 22 14 46 14 53 0 28 -40 13 -71 -26 -35 -43 -49 -44 -49
0 0 24 -10 35 -72 74 -39 25 -76 46 -82 46 -6 0 -45 13 -86 30 -92 36 -108 37
-120 6 -18 -48 1 -53 -432 118 -119 47 -243 93 -275 102 -90 26 -262 98 -448
188 -321 155 -497 270 -650 425 l-79 81 27 28 c19 20 27 39 27 65 0 20 -5 37
-11 37 -6 0 -30 -13 -53 -29 l-43 -30 -35 47 c-50 66 -122 181 -136 217 -9 24
-31 144 -32 177 0 18 -35 38 -64 38 -31 0 -35 -4 -59 -57z m1983 -2352 c56
-20 63 -26 79 -71 7 -20 26 -31 91 -54 71 -24 85 -27 106 -16 19 10 32 11 63
2 55 -17 57 -16 106 29 41 38 107 65 127 53 15 -10 -3 -187 -28 -268 -19 -63
-24 -102 -24 -188 0 -118 -4 -125 -60 -93 -51 29 -100 14 -100 -31 0 -65 -123
-234 -210 -287 -19 -11 -37 -24 -40 -28 -13 -19 -100 -31 -173 -24 -75 6 -168
42 -204 78 -13 14 -43 150 -43 197 0 18 11 59 24 93 54 136 86 232 86 259 0
16 -7 45 -15 65 -8 19 -15 37 -15 39 0 10 116 114 127 114 9 0 13 13 12 43 -2
33 22 107 34 107 2 0 27 -9 57 -19z m-770 -993 c6 -24 13 -51 16 -60 4 -12
-10 -34 -39 -65 l-45 -47 -25 30 c-15 16 -27 32 -27 37 0 4 20 35 45 69 25 34
45 66 45 70 0 4 4 8 10 8 5 0 14 -19 20 -42z"/>
</g>
</svg>
